…
## FAILS because subquery
tbl(conn, "nc") %>% mutate(aa = AREA) %>% transmute(a1 = FID) %>% show_query()
#> <SQL>
#> SELECT "FID" AS "a1"
#> FROM (SELECT "AREA", "PERIMETER", "CNTY_", "CNTY_ID", "NAME", "FIPS", "FIPSNO", "CRESS_ID", "BIR74", "SID74", "NWBIR74", "BIR79", "SID79", "NWBIR79", "_ogr_geometry_", "AREA" AS "aa"
#> FROM "nc") "dbplyr_002"

## ok because a single statement
tbl(conn, "nc") %>% transmute(a1 = FID, aa = AREA) %>% collect()
#> # A tibble: 100 x 3
#>       a1    aa `_ogr_geometry_`                                                 
#>    <int> <dbl> <wk_wkb>                                                         
#>  1     0 0.114 <POLYGON ((-81.4728 36.2344, -81.5408 36.2725, -81.562 36.2736..…
#>  2     1 0.061 <POLYGON ((-81.2399 36.3654, -81.2407 36.3794, -81.2628 36.405..…
#>  3     2 0.143 <POLYGON ((-80.4563 36.2426, -80.4764 36.2547, -80.5369 36.2567.…
#>  4     3 0.07  <MULTIPOLYGON (((-76.009 36.3196, -76.0173 36.3377, -76.0329 36.…
#>  5     4 0.153 <POLYGON ((-77.2177 36.241, -77.2346 36.2146, -77.2986 36.2115..…
#>  6     5 0.097 <POLYGON ((-76.7451 36.2339, -76.9807 36.2302, -76.9948 36.2356.…
#>  7     6 0.062 <POLYGON ((-76.009 36.3196, -75.9572 36.1938, -75.9813 36.1697..…
#>  8     7 0.091 <POLYGON ((-76.5625 36.3406, -76.6042 36.315, -76.6482 36.3153..…
#>  9     8 0.118 <POLYGON ((-78.3088 36.26, -78.2829 36.2919, -78.3213 36.5455...>
#> 10     9 0.124 <POLYGON ((-80.0257 36.2502, -80.453 36.2571, -80.4353 36.551...>
#> # … with 90 more rows
```
